\relax 
\providecommand\hyper@newdestlabel[2]{}
\catcode `:\active 
\catcode `;\active 
\catcode `!\active 
\catcode `?\active 
\providecommand\HyperFirstAtBeginDocument{\AtBeginDocument}
\HyperFirstAtBeginDocument{\ifx\hyper@anchor\@undefined
\global\let\oldcontentsline\contentsline
\gdef\contentsline#1#2#3#4{\oldcontentsline{#1}{#2}{#3}}
\global\let\oldnewlabel\newlabel
\gdef\newlabel#1#2{\newlabelxx{#1}#2}
\gdef\newlabelxx#1#2#3#4#5#6{\oldnewlabel{#1}{{#2}{#3}}}
\AtEndDocument{\ifx\hyper@anchor\@undefined
\let\contentsline\oldcontentsline
\let\newlabel\oldnewlabel
\fi}
\fi}
\global\let\hyper@last\relax 
\gdef\HyperFirstAtBeginDocument#1{#1}
\providecommand\HyField@AuxAddToFields[1]{}
\providecommand\HyField@AuxAddToCoFields[2]{}
\select@language{french}
\@writefile{toc}{\select@language{french}}
\@writefile{lof}{\select@language{french}}
\@writefile{lot}{\select@language{french}}
\citation{ref4}
\@writefile{toc}{\contentsline {section}{\numberline {1}Introduction}{2}{section.1}}
\citation{ref1}
\@writefile{toc}{\contentsline {section}{\numberline {2}Graham-Schaefer (1954)}{3}{section.2}}
\@writefile{toc}{\contentsline {section}{\numberline {3}Lotka-Volterra(1925)}{4}{section.3}}
\citation{ref2}
\citation{ref3}
\citation{ref5}
\citation{ref2}
\citation{ref3}
\bibstyle{plain}
\bibdata{bibli}
\bibcite{ref4}{1}
\bibcite{ref2}{2}
\bibcite{ref5}{3}
\bibcite{ref3}{4}
\bibcite{ref1}{5}
\@writefile{toc}{\contentsline {section}{\numberline {4}Roopnarine (2013) }{5}{section.4}}
