\select@language {french}
\contentsline {section}{\numberline {1}Introduction}{2}{section.1}
\contentsline {section}{\numberline {2}Graham-Schaefer (1954)}{3}{section.2}
\contentsline {section}{\numberline {3}Lotka-Volterra(1925)}{4}{section.3}
\contentsline {section}{\numberline {4}Roopnarine (2013) }{5}{section.4}
