<?xml version="1.0" encoding="UTF-8"?>
<kml xmlns="http://www.opengis.net/kml/2.2" xmlns:gx="http://www.google.com/kml/ext/2.2" xmlns:kml="http://www.opengis.net/kml/2.2" xmlns:atom="http://www.w3.org/2005/Atom">
<Document>
	<name>Cantonnements.shp</name>
	<visibility>0</visibility>
	<Schema name="Cantonnements" id="S_Cantonnements_IDDDDSSSSD">
		<SimpleField type="int" name="OBJECTID"><displayName>&lt;b&gt;OBJECTID&lt;/b&gt;</displayName>
</SimpleField>
		<SimpleField type="double" name="Area"><displayName>&lt;b&gt;Area&lt;/b&gt;</displayName>
</SimpleField>
		<SimpleField type="double" name="Perimeter"><displayName>&lt;b&gt;Perimeter&lt;/b&gt;</displayName>
</SimpleField>
		<SimpleField type="double" name="Canton_p_"><displayName>&lt;b&gt;Canton_p_&lt;/b&gt;</displayName>
</SimpleField>
		<SimpleField type="double" name="Canton_p_i"><displayName>&lt;b&gt;Canton_p_i&lt;/b&gt;</displayName>
</SimpleField>
		<SimpleField type="string" name="Dpt"><displayName>&lt;b&gt;Dpt&lt;/b&gt;</displayName>
</SimpleField>
		<SimpleField type="string" name="Date_c"><displayName>&lt;b&gt;Date_c&lt;/b&gt;</displayName>
</SimpleField>
		<SimpleField type="string" name="Libelle"><displayName>&lt;b&gt;Libelle&lt;/b&gt;</displayName>
</SimpleField>
		<SimpleField type="string" name="Prudhomie"><displayName>&lt;b&gt;Prudhomie&lt;/b&gt;</displayName>
</SimpleField>
		<SimpleField type="double" name="super"><displayName>&lt;b&gt;super&lt;/b&gt;</displayName>
</SimpleField>
	</Schema>
	<Style id="falseColor">
		<BalloonStyle>
			<text><![CDATA[<table border="0">
  <tr><td><b>OBJECTID</b></td><td>$[Cantonnements/OBJECTID]</td></tr>
  <tr><td><b>Area</b></td><td>$[Cantonnements/Area]</td></tr>
  <tr><td><b>Perimeter</b></td><td>$[Cantonnements/Perimeter]</td></tr>
  <tr><td><b>Canton_p_</b></td><td>$[Cantonnements/Canton_p_]</td></tr>
  <tr><td><b>Canton_p_i</b></td><td>$[Cantonnements/Canton_p_i]</td></tr>
  <tr><td><b>Dpt</b></td><td>$[Cantonnements/Dpt]</td></tr>
  <tr><td><b>Date_c</b></td><td>$[Cantonnements/Date_c]</td></tr>
  <tr><td><b>Libelle</b></td><td>$[Cantonnements/Libelle]</td></tr>
  <tr><td><b>Prudhomie</b></td><td>$[Cantonnements/Prudhomie]</td></tr>
  <tr><td><b>super</b></td><td>$[Cantonnements/super]</td></tr>
</table>
]]></text>
		</BalloonStyle>
		<PolyStyle>
			<colorMode>random</colorMode>
		</PolyStyle>
	</Style>
	<Folder id="layer 0">
		<name>Cantonnements</name>
		<visibility>0</visibility>
		<Placemark>
			<visibility>0</visibility>
			<styleUrl>#falseColor</styleUrl>
			<ExtendedData>
				<SchemaData schemaUrl="#S_Cantonnements_IDDDDSSSSD">
					<SimpleData name="OBJECTID">1</SimpleData>
					<SimpleData name="Area">1.49692e+07</SimpleData>
					<SimpleData name="Perimeter">16921.7</SimpleData>
					<SimpleData name="Canton_p_">2</SimpleData>
					<SimpleData name="Canton_p_i">1</SimpleData>
					<SimpleData name="Dpt">2A</SimpleData>
					<SimpleData name="Date_c">1983/02/15</SimpleData>
					<SimpleData name="Libelle">Cantonnement de PORTO-VECCHIO</SimpleData>
					<SimpleData name="Prudhomie">Bonifacio</SimpleData>
					<SimpleData name="super">14.9694</SimpleData>
				</SchemaData>
			</ExtendedData>
			<Polygon>
				<outerBoundaryIs>
					<LinearRing>
						<coordinates>
							9.444844490044613,41.60177260867567,0 9.41427895843923,41.60594209275507,0 9.414267234049172,41.55299455359847,0 9.444845337220261,41.54899417978059,0 9.444844490044613,41.60177260867567,0 
						</coordinates>
					</LinearRing>
				</outerBoundaryIs>
			</Polygon>
		</Placemark>
		<Placemark>
			<visibility>0</visibility>
			<styleUrl>#falseColor</styleUrl>
			<ExtendedData>
				<SchemaData schemaUrl="#S_Cantonnements_IDDDDSSSSD">
					<SimpleData name="OBJECTID">2</SimpleData>
					<SimpleData name="Area">2.42089e+07</SimpleData>
					<SimpleData name="Perimeter">21270.1</SimpleData>
					<SimpleData name="Canton_p_">5</SimpleData>
					<SimpleData name="Canton_p_i">4</SimpleData>
					<SimpleData name="Dpt">2B</SimpleData>
					<SimpleData name="Date_c">1977/07/29</SimpleData>
					<SimpleData name="Libelle">Cantonnement de SAINT-FLORENT</SimpleData>
					<SimpleData name="Prudhomie">Bastia</SimpleData>
					<SimpleData name="super">24.2088</SimpleData>
				</SchemaData>
			</ExtendedData>
			<Polygon>
				<outerBoundaryIs>
					<LinearRing>
						<coordinates>
							9.290658494517302,42.78346853251469,0 9.290658831411335,42.73040243939525,0 9.341986610084195,42.73213786814755,0 9.342119798227827,42.73222443096802,0 9.342216851254603,42.73234532627139,0 9.341987591782877,42.73249404329277,0 9.342062673216347,42.73276537168384,0 9.342386289870301,42.7328002105719,0 9.342408682543297,42.73297920213894,0 9.342672131300667,42.73296322679126,0 9.34295508734898,42.73290499816773,0 9.34314636760929,42.73281750854307,0 9.3433518724422,42.73294432545192,0 9.343524230717213,42.73332760594283,0 9.343682999830509,42.7337518873038,0 9.343819813832837,42.73410964577716,0 9.344004559544846,42.73438682174098,0 9.344328167412588,42.73485556680642,0 9.344548367460742,42.73529844185254,0 9.344755474516928,42.7357867517664,0 9.345001606272024,42.73611466513167,0 9.345168980307017,42.73642057085701,0 9.345267669071458,42.73674046384983,0 9.345094166674208,42.73686794767029,0 9.3449879194376,42.73700117274938,0 9.344754812019991,42.73702870431317,0 9.344611474978596,42.73723114009239,0 9.344595119131519,42.73745355133146,0 9.344671352273437,42.73770248825845,0 9.344581602353381,42.73800524063778,0 9.344462895039204,42.73815707710753,0 9.344173002354585,42.73828358288303,0 9.344102126132254,42.73849501530351,0 9.344123558226753,42.7387195986006,0 9.344053488513403,42.73892741073282,0 9.343830369931471,42.73904450881013,0 9.343601615581051,42.73917623325664,0 9.343513521935991,42.73929853457427,0 9.343542012734233,42.73942358697867,0 9.343729942286313,42.73958807560159,0 9.343805862275607,42.7398450672119,0 9.343878800182202,42.73994510367737,0 9.344075807577159,42.74021260823348,0 9.34438665272598,42.74079462309803,0 9.344695851272785,42.74134013167601,0 9.345038179204108,42.74185684573044,0 9.345322180697151,42.74207889541128,0 9.34555168252821,42.74270244734581,0 9.345700723886345,42.74294161058134,0 9.345638525347105,42.74346946775711,0 9.345384698562595,42.74366967691592,0 9.345207021268678,42.74404204475896,0 9.345060456861788,42.74438931190544,0 9.344976106008843,42.74469709286296,0 9.344819136518637,42.74502713416413,0 9.3446202975605,42.74518829345952,0 9.344591549680544,42.74545163222184,0 9.344444247079666,42.74589001006778,0 9.344553335067909,42.74595571272401,0 9.344525226339684,42.74619222810366,0 9.34417314786379,42.74638053548035,0 9.34410025056723,42.74673672549368,0 9.343997706891201,42.74700096741034,0 9.343718614699682,42.74725716527438,0 9.343630105058146,42.74745180892878,0 9.343252061977028,42.74770061296367,0 9.343010623387267,42.7479143490541,0 9.342854707358539,42.74805861692635,0 9.342541950851565,42.74815436007228,0 9.342402592176766,42.74842529584869,0 9.342327437861275,42.74853341831128,0 9.34242416217903,42.74896592626497,0 9.342593594346447,42.74918153665715,0 9.342565258776595,42.7497742972002,0 9.342369290193556,42.74980939038704,0 9.342360122115458,42.74997690229019,0 9.342482518922468,42.750064120643,0 9.34230101973391,42.75028314885238,0 9.342079827298061,42.75028762923696,0 9.342041399075338,42.75044262971772,0 9.341939549190093,42.75070236245468,0 9.341803022846143,42.7508142044199,0 9.341575123578245,42.75087801588732,0 9.3416569187,42.7511659004952,0 9.341614824610186,42.75149432849152,0 9.341611029802479,42.75168829877727,0 9.341685725335358,42.75203196803808,0 9.341771688083158,42.75248744864714,0 9.341838920262063,42.75286192580982,0 9.341622853502978,42.75298840931058,0 9.341645397441734,42.75313614246525,0 9.341468146115396,42.75345847709411,0 9.341306168425735,42.75368971165166,0 9.340947360619269,42.75385073630779,0 9.340644732691391,42.75405924533479,0 9.340586045824985,42.7543476084465,0 9.34055818013503,42.75454303701735,0 9.340408077033802,42.75467444830927,0 9.340467476712337,42.7547833428083,0 9.340437561016097,42.75521013335288,0 9.34033502316221,42.75551811679759,0 9.340356808395626,42.75570250112419,0 9.340388488973549,42.75597556679123,0 9.340387176818602,42.75611581744944,0 9.339968000440674,42.7562679967992,0 9.339758331070049,42.75639765932659,0 9.33943392229053,42.75647624085892,0 9.339439655197319,42.7568642653447,0 9.33939170619583,42.75707519493381,0 9.339388350458421,42.75730574287407,0 9.3393483969265,42.75753404412262,0 9.339148581626272,42.75770864134414,0 9.339064923453563,42.75792530531366,0 9.339060363025808,42.75815592608423,0 9.339008177029925,42.75844835749344,0 9.338833711691548,42.75856784963166,0 9.338637614711613,42.75860204958325,0 9.338556786428986,42.75867033547475,0 9.338550676145427,42.75899568751378,0 9.338567032400258,42.75912058249701,0 9.338748643457372,42.75924975129139,0 9.338973513727215,42.75935397891501,0 9.339292023425351,42.75940699983498,0 9.339473895951311,42.75989684615993,0 9.339631140034825,42.76036140021802,0 9.339818987226547,42.76088302525547,0 9.33989925483219,42.76118975188533,0 9.339755713576787,42.76134754763187,0 9.339509983848941,42.76137136351829,0 9.339415718532829,42.76150385318046,0 9.339322143456181,42.76157737564749,0 9.339300288223518,42.76177243884585,0 9.339224783448365,42.76189932767005,0 9.338850127050659,42.76196220080531,0 9.338634500170869,42.76203865225988,0 9.338473691293373,42.76213945966858,0 9.338312930896301,42.76220812286391,0 9.338265749166617,42.76243686075019,0 9.338359727441098,42.76269276030813,0 9.338583489707496,42.76287383770592,0 9.338734100127351,42.76301827697027,0 9.338725611660701,42.76312682071786,0 9.338497945188585,42.76320400095047,0 9.338221904875738,42.76323857771995,0 9.338067719972333,42.76333362623617,0 9.337941678666542,42.76351803602473,0 9.337853820318664,42.76365370707524,0 9.337661499297877,42.76376534965546,0 9.337511549527475,42.76390924504371,0 9.337505449906548,42.764289056499,0 9.337462880178924,42.76458090341747,0 9.337453927746807,42.76479393309477,0 9.337589602968905,42.76506516384047,0 9.337873847978035,42.7653104328618,0 9.338088499068057,42.76535546421501,0 9.33815709026498,42.76562272239627,0 9.33812800844299,42.76581822249194,0 9.338129693362035,42.76609399709566,0 9.338431703442298,42.76640068540469,0 9.338728537388681,42.76661751329949,0 9.338945801863092,42.76679452021337,0 9.339003943634211,42.76701152114639,0 9.339214911461218,42.76717551699957,0 9.339440438962452,42.76732880966266,0 9.339606518070678,42.767666050039,0 9.339838128215741,42.76771094410338,0 9.339982997059622,42.76781466113703,0 9.340203347435047,42.76787809278348,0 9.340248139569368,42.76810572297386,0 9.340368541340883,42.76820735071156,0 9.340644909270903,42.76837095324605,0 9.340900982859676,42.76855899779893,0 9.341023647249123,42.76869173608454,0 9.3412012524097,42.76883900141267,0 9.341206308475428,42.76901457791333,0 9.340973595279793,42.7691009955959,0 9.340851490655862,42.76926642053313,0 9.341071379338484,42.76951022566537,0 9.341181407554542,42.76950802296635,0 9.341346551153737,42.76967389937867,0 9.341579888654859,42.76977761101075,0 9.34182475748627,42.76995204798294,0 9.341768787987235,42.7700911461291,0 9.341615961765557,42.77020932907477,0 9.341401046189262,42.77019467461776,0 9.341136946285435,42.77020621283675,0 9.341095438867612,42.77039889543134,0 9.341064016272087,42.77048650867557,0 9.34086781617248,42.77049839619038,0 9.340597205498092,42.77090762592471,0 9.340634050967406,42.77108574028914,0 9.34051109867578,42.77121103959023,0 9.340621417550295,42.7713525616224,0 9.340400470038608,42.77147933371151,0 9.340412318446063,42.77167235455445,0 9.340247381797443,42.77176894880542,0 9.340062744054629,42.77196048073921,0 9.339897511785441,42.77211958860973,0 9.340062163987994,42.77228103265142,0 9.340038046986558,42.77244498401447,0 9.33995851042698,42.7726444335171,0 9.33985948108797,42.77279953072926,0 9.339883384027319,42.7730462822645,0 9.339577658959497,42.77324961205666,0 9.339411713168548,42.77341322611868,0 9.339344857122409,42.77371547202754,0 9.339190238051183,42.77388286357429,0 9.33914049570574,42.77414300371212,0 9.338999695571189,42.77439080293034,0 9.339165769293842,42.77454323420631,0 9.339220081161766,42.77491045773877,0 9.33934214844065,42.77517894022337,0 9.339550320530098,42.77521989922412,0 9.339585950187921,42.77553915011532,0 9.339593085236512,42.77586369815668,0 9.339524082334719,42.7761250049122,0 9.339867957032038,42.77617649271166,0 9.340118431393609,42.77623810136992,0 9.340160882806634,42.77635784386292,0 9.340442832562896,42.77629969518205,0 9.340596442402225,42.77634038662359,0 9.340423977196469,42.77649993254558,0 9.340755302360693,42.77649325306497,0 9.340871535152523,42.77664423774964,0 9.341073673763054,42.77690251117006,0 9.340913674057049,42.77704344649759,0 9.341029995124547,42.77727120683466,0 9.341251195361595,42.77718995264608,0 9.341317733916142,42.77743858488016,0 9.341304900082905,42.77763845763823,0 9.341035652887925,42.77758245249031,0 9.340901018310239,42.77779863205799,0 9.341034582748149,42.77789856972082,0 9.341175952608767,42.77807927948505,0 9.341120188297918,42.7782094359186,0 9.340850684364227,42.77832486395729,0 9.340869275791665,42.77843712367225,0 9.341071392887406,42.77851058832941,0 9.341174368195526,42.77860791503331,0 9.341462453689147,42.77868063486287,0 9.341370594154847,42.77886743921265,0 9.341284313825886,42.77914764977017,0 9.341119085476883,42.77936121875327,0 9.341044232052184,42.77964609353483,0 9.340731623075001,42.77994001424324,0 9.340848102688435,42.78026686627017,0 9.34069464693529,42.78052079003486,0 9.340504674391955,42.78070817974366,0 9.340271294000623,42.7808758783457,0 9.340153980212179,42.7810410101528,0 9.340264628497952,42.78117447784403,0 9.340226818907972,42.78130265306406,0 9.340129427354711,42.78149425488687,0 9.340166382416481,42.78180360416586,0 9.340368100622021,42.78194941164239,0 9.34025108501074,42.78218237821295,0 9.340171137984502,42.78231310562376,0 9.340244748265851,42.7824622088156,0 9.340324116502634,42.78265203206156,0 9.340433289335248,42.78290254603357,0 9.340237864213844,42.78304116087833,0 9.340230732449225,42.78324872266572,0 9.340341617798845,42.78342770890927,0 9.34024292037785,42.78361849679656,0 9.340174962810718,42.78378063865934,0 9.339954727907802,42.78387075864957,0 9.290658494517302,42.78346853251469,0 
						</coordinates>
					</LinearRing>
				</outerBoundaryIs>
			</Polygon>
		</Placemark>
		<Placemark>
			<visibility>0</visibility>
			<styleUrl>#falseColor</styleUrl>
			<ExtendedData>
				<SchemaData schemaUrl="#S_Cantonnements_IDDDDSSSSD">
					<SimpleData name="OBJECTID">3</SimpleData>
					<SimpleData name="Area">8.00709e+06</SimpleData>
					<SimpleData name="Perimeter">11555.7</SimpleData>
					<SimpleData name="Canton_p_">6</SimpleData>
					<SimpleData name="Canton_p_i">5</SimpleData>
					<SimpleData name="Dpt">2B</SimpleData>
					<SimpleData name="Date_c">1977/07/29</SimpleData>
					<SimpleData name="Libelle">Cantonnement de BASTIA</SimpleData>
					<SimpleData name="Prudhomie">Bastia</SimpleData>
					<SimpleData name="super">8.00727</SimpleData>
				</SchemaData>
			</ExtendedData>
			<Polygon>
				<outerBoundaryIs>
					<LinearRing>
						<coordinates>
							9.467173273474319,42.74048150500145,0 9.466876972469148,42.73978187957942,0 9.466658392665931,42.73912656810261,0 9.466444757322513,42.73852541964432,0 9.466352876048765,42.73802569417911,0 9.466454231229374,42.73764887530074,0 9.466624234304671,42.73723656722797,0 9.466716422594672,42.73677905731613,0 9.466830591716629,42.73618446579024,0 9.46680535515323,42.73565294635641,0 9.466781321870466,42.73512135257945,0 9.466650336611465,42.73459725254956,0 9.466403652594773,42.73402493152103,0 9.466081168039793,42.73340371253258,0 9.465754869290933,42.73275951220314,0 9.465520483461706,42.7322953679314,0 9.465368129571964,42.73190295286052,0 9.465215078165974,42.73151504532719,0 9.465091467734045,42.73106638778795,0 9.465079732440147,42.73064297194229,0 9.465173024393509,42.73018450126438,0 9.465249910902948,42.72959221078992,0 9.465204609308513,42.72919318927417,0 9.464935361575485,42.72873119568103,0 9.464603114322054,42.72835434545736,0 9.464055080895735,42.72798634448419,0 9.463689277595403,42.72763388574663,0 9.463397346765374,42.72728133301007,0 9.463207734581101,42.72689121471716,0 9.46314765437657,42.72636184460437,0 9.463078417473398,42.72575178307535,0 9.462995739166278,42.72533274402497,0 9.46286038307746,42.7247803371588,0 9.462597309607453,42.72437242723253,0 9.46228588454883,42.72385856273802,0 9.46187044854851,42.72337790164349,0 9.461784873108776,42.7229545761643,0 9.461830025803799,42.7223919261964,0 9.461652571670211,42.72178853978477,0 9.461260359724971,42.72120286525074,0 9.460925755444848,42.72079400738637,0 9.460516586634293,42.7203683176334,0 9.46025224368816,42.71995958921677,0 9.460090799634276,42.71948647384961,0 9.460079100193099,42.7190630558007,0 9.45979155857934,42.71875933683293,0 9.459594547743215,42.71829287917415,0 9.459680725014415,42.71778216846882,0 9.459677577327463,42.71743412158227,0 9.45948153704002,42.71712565181515,0 9.459243323009279,42.71685103511764,0 9.459213354557278,42.71658679149446,0 9.459235093977142,42.71631935894787,0 9.4593710232005,42.71592701773679,0 9.459430047521931,42.71567871575945,0 9.4988865467807,42.71568694799327,0 9.49899410778816,42.74069022092999,0 9.467235039166599,42.74069467383924,0 9.467173273474319,42.74048150500145,0 
						</coordinates>
					</LinearRing>
				</outerBoundaryIs>
			</Polygon>
		</Placemark>
		<Placemark>
			<visibility>0</visibility>
			<styleUrl>#falseColor</styleUrl>
			<ExtendedData>
				<SchemaData schemaUrl="#S_Cantonnements_IDDDDSSSSD">
					<SimpleData name="OBJECTID">4</SimpleData>
					<SimpleData name="Area">1.04099e+07</SimpleData>
					<SimpleData name="Perimeter">14333.7</SimpleData>
					<SimpleData name="Canton_p_">7</SimpleData>
					<SimpleData name="Canton_p_i">6</SimpleData>
					<SimpleData name="Dpt">2B</SimpleData>
					<SimpleData name="Date_c">1977/07/29</SimpleData>
					<SimpleData name="Libelle">Cantonnement de ILE-ROUSSE</SimpleData>
					<SimpleData name="Prudhomie">Balagne</SimpleData>
					<SimpleData name="super">10.4101</SimpleData>
				</SchemaData>
			</ExtendedData>
			<Polygon>
				<outerBoundaryIs>
					<LinearRing>
						<coordinates>
							8.940654302427253,42.6449323307239,0 8.940649025704555,42.6906834361618,0 8.915652789831681,42.6906838181181,0 8.915652784927005,42.64484747774681,0 8.930120698626563,42.64489825214482,0 8.930143350985391,42.64519505473196,0 8.930420194440071,42.64528723115311,0 8.930849856134175,42.64538406303953,0 8.931258857780207,42.64541067345036,0 8.931649639636161,42.64542493599328,0 8.932013021764028,42.64538542763604,0 8.93238649824541,42.64537300892815,0 8.932668268584951,42.645362260295,0 8.932823822617806,42.6453123144718,0 8.933015173643231,42.64529245268243,0 8.933372888063795,42.64534876223253,0 8.933629078090988,42.64524397503521,0 8.933883738109101,42.6450669815119,0 8.933948248998171,42.64490978237087,0 8.940654302427253,42.6449323307239,0 
						</coordinates>
					</LinearRing>
				</outerBoundaryIs>
			</Polygon>
		</Placemark>
		<Placemark>
			<visibility>0</visibility>
			<styleUrl>#falseColor</styleUrl>
			<ExtendedData>
				<SchemaData schemaUrl="#S_Cantonnements_IDDDDSSSSD">
					<SimpleData name="OBJECTID">5</SimpleData>
					<SimpleData name="Area">1.28646e+07</SimpleData>
					<SimpleData name="Perimeter">17722.2</SimpleData>
					<SimpleData name="Canton_p_">8</SimpleData>
					<SimpleData name="Canton_p_i">7</SimpleData>
					<SimpleData name="Dpt">2B</SimpleData>
					<SimpleData name="Date_c">1978/06/20</SimpleData>
					<SimpleData name="Libelle">Cantonnement de CALVI</SimpleData>
					<SimpleData name="Prudhomie">Balagne</SimpleData>
					<SimpleData name="super">12.8642</SimpleData>
				</SchemaData>
			</ExtendedData>
			<Polygon>
				<outerBoundaryIs>
					<LinearRing>
						<coordinates>
							8.709811804773144,42.57686616407477,0 8.710465727707387,42.57695672774422,0 8.710949594013568,42.57709684576128,0 8.711452524415893,42.57735369781611,0 8.711631792505145,42.57757401154925,0 8.71179867123606,42.57776734730977,0 8.712519764362909,42.57781759947508,0 8.712615240977325,42.57759190908762,0 8.712840972978736,42.57757942536632,0 8.713013564739057,42.57774567312428,0 8.713582922418022,42.57793102416963,0 8.714176811784586,42.57809627623886,0 8.714875101755513,42.57827895101489,0 8.715224141635712,42.57845863551672,0 8.715532044201035,42.57872090671904,0 8.71597392323212,42.57895880965503,0 8.716395455340301,42.5790077659094,0 8.716763175783356,42.57918105840172,0 8.716656539494917,42.57943949501607,0 8.716968521702224,42.57959891661251,0 8.717275464597325,42.57974433868202,0 8.717602228819285,42.5800376859728,0 8.71788897936927,42.58013871409283,0 8.71828853281456,42.58029239336761,0 8.718634376071073,42.58073816692092,0 8.718629432471264,42.58089192537017,0 8.718809104775257,42.581044388427,0 8.719173034527351,42.5811920057311,0 8.719482908649034,42.58128282671598,0 8.719860179239882,42.58134760687459,0 8.720208186266238,42.58137385006429,0 8.720470403094369,42.58136379389938,0 8.720683384848922,42.58139215745085,0 8.720781100297135,42.58135551456097,0 8.720969703519694,42.58141735221605,0 8.721194243473525,42.58144061307416,0 8.721354696290117,42.58142726634357,0 8.72152378704056,42.5814991071918,0 8.721790590336056,42.58156999844762,0 8.721989636437417,42.5816990752653,0 8.722109131442068,42.58184148099938,0 8.721942994168611,42.58197739628333,0 8.722038237841119,42.58207117319532,0 8.72242227047785,42.58213110911263,0 8.722591965983337,42.58218506793477,0 8.722535161703217,42.58229172735174,0 8.722658282290702,42.58256510819346,0 8.722803359416694,42.58267397164644,0 8.722959632616876,42.58280987786624,0 8.722890008105079,42.58294491056786,0 8.722773315478637,42.58303257817327,0 8.723058588624625,42.58310690571863,0 8.723130421209424,42.5831841314512,0 8.723120322930772,42.58337030091748,0 8.723339103838521,42.58344384897477,0 8.723354795903129,42.58358664918622,0 8.723568627221061,42.58361139140329,0 8.723904551990543,42.58360170684626,0 8.723976087279555,42.58365217788936,0 8.724126060772658,42.58379735531265,0 8.724289094362167,42.58392842371023,0 8.724365067396032,42.58411785642302,0 8.724577636341039,42.58423725669957,0 8.724826292760731,42.58429576169989,0 8.725154052847405,42.58437219238967,0 8.725489680999235,42.5843714434508,0 8.72570387751284,42.58432834244899,0 8.725791810122194,42.5841833698053,0 8.725885835765625,42.58407464613207,0 8.725941645490746,42.58395822406749,0 8.726210476358194,42.58396563609784,0 8.7264610849161,42.58398387328276,0 8.726630788860756,42.58403782614234,0 8.726947802631271,42.58405595163165,0 8.727189765895695,42.58406038864932,0 8.726950593761678,42.58451179247276,0 8.726923845846116,42.5843553273033,0 8.726778967927133,42.58423664148161,0 8.72657963304893,42.58421199402149,0 8.726559158432128,42.5843077187193,0 8.726350366446827,42.58433267467421,0 8.72618459293243,42.58440075669399,0 8.726031878185342,42.58445472945485,0 8.726023711216602,42.58454084841385,0 8.72581641874865,42.58459249100014,0 8.72561290686075,42.58471709707185,0 8.72567798888532,42.58483485161013,0 8.725884319350833,42.58490462334295,0 8.726054236146265,42.5849130550785,0 8.726163600989846,42.58494358151428,0 8.726493738867521,42.58488870018656,0 8.726569151435353,42.58479885461946,0 8.726776744053089,42.58477396482159,0 8.726882176639069,42.58468245532669,0 8.72710667040289,42.58476460369975,0 8.726897877121864,42.58478956064054,0 8.725767974806832,42.59002963187135,0 8.725502329982135,42.59126777023495,0 8.723949928855328,42.59851222893104,0 8.717733324741204,42.62749167047254,0 8.717047180016607,42.62736274609556,0 8.716511087567852,42.62708096231641,0 8.715952914338136,42.62683162893687,0 8.715375904799586,42.62661099689587,0 8.714774712151122,42.62641400741279,0 8.714136121165232,42.62637256414045,0 8.713486031223074,42.62644418735349,0 8.712887160988391,42.6266396881823,0 8.712280635999118,42.62679545353664,0 8.711629355430963,42.62679574489154,0 8.71097498541495,42.62677746421592,0 8.710323468491659,42.62676348392931,0 8.709674278805091,42.62680826548494,0 8.709029222120982,42.62689386242499,0 8.708434095538887,42.6270668240774,0 8.707919826050855,42.62737006001799,0 8.707312675330833,42.62754367938196,0 8.706676614601188,42.62764661252476,0 8.706016161041346,42.62765183981632,0 8.705350070622284,42.62762525056037,0 8.704722194910062,42.62767775049189,0 8.704183142408786,42.62791541151587,0 8.703702714284942,42.62826673001568,0 8.703205470737805,42.62858328083528,0 8.702705280123638,42.62889463782923,0 8.702230554908779,42.62921886478027,0 8.701851573440171,42.62960562495049,0 8.701533107310343,42.63002920033021,0 8.701024195552648,42.63031426007183,0 8.7004693245055,42.63057508214241,0 8.699987364742881,42.63089969734237,0 8.699511857555656,42.63122841609119,0 8.699024327963079,42.63155779543859,0 8.698505778673491,42.63184337405215,0 8.69790921436338,42.63203866443936,0 8.69726663577528,42.63213744002651,0 8.696635370058981,42.63207318579997,0 8.695997737515375,42.63194592422626,0 8.695329202642954,42.63191940974816,0 8.694682496257711,42.63197735152282,0 8.694189465960601,42.63225258022497,0 8.693796676897287,42.63265880930994,0 8.693385032008031,42.63303395191108,0 8.692989901951517,42.63341710625846,0 8.69267706075405,42.63384926574261,0 8.692300917638555,42.63421709425866,0 8.691692170889546,42.63436394357952,0 8.691040535081594,42.6344810277488,0 8.69043777115758,42.63466323337547,0 8.689835003747874,42.63484543584778,0 8.689204096262738,42.63495244487522,0 8.688554949477654,42.63501048461795,0 8.687932734764821,42.63514377746095,0 8.68731975122969,42.63530868210929,0 8.686690178318525,42.63542898816753,0 8.68604161360623,42.63550482761796,0 8.685422188273924,42.63562992208355,0 8.684850314617094,42.63585501321061,0 8.684290827157891,42.6361070816351,0 8.68372848389258,42.63635484259457,0 8.68314684184897,42.63656707713243,0 8.682530060363005,42.63675447145601,0 8.681903008230227,42.63688799611239,0 8.681267184152839,42.63685067618931,0 8.680700740528152,42.63660252334216,0 8.680498634071384,42.63614427915272,0 8.680353324242773,42.63567398954979,0 8.680206060285185,42.63520826877068,0 8.680141166000279,42.63504408193428,0 8.699320801929415,42.59611864882392,0 8.706839074896164,42.58083987353329,0 8.707300214268333,42.57990777276972,0 8.709069839001803,42.57711063158217,0 8.709310304825614,42.57679037286902,0 8.709811804773144,42.57686616407477,0 
						</coordinates>
					</LinearRing>
				</outerBoundaryIs>
			</Polygon>
		</Placemark>
		<Placemark>
			<visibility>0</visibility>
			<styleUrl>#falseColor</styleUrl>
			<ExtendedData>
				<SchemaData schemaUrl="#S_Cantonnements_IDDDDSSSSD">
					<SimpleData name="OBJECTID">6</SimpleData>
					<SimpleData name="Area">4.32312e+06</SimpleData>
					<SimpleData name="Perimeter">9516.77</SimpleData>
					<SimpleData name="Canton_p_">9</SimpleData>
					<SimpleData name="Canton_p_i">8</SimpleData>
					<SimpleData name="Dpt">2A</SimpleData>
					<SimpleData name="Date_c">1978/06/20</SimpleData>
					<SimpleData name="Libelle">Cantonnement de PIANA PORTO</SimpleData>
					<SimpleData name="Prudhomie">Ajaccio</SimpleData>
					<SimpleData name="super">4.32298</SimpleData>
				</SchemaData>
			</ExtendedData>
			<Polygon>
				<outerBoundaryIs>
					<LinearRing>
						<coordinates>
							8.643936873537697,42.25739907753083,0 8.644514313997224,42.25740748066563,0 8.644682954689955,42.25723133316939,0 8.644987286768053,42.25736808407392,0 8.645113490980375,42.25721211716389,0 8.645611682871435,42.25718471646678,0 8.645947699253194,42.25730187477227,0 8.646275313247486,42.25731062495453,0 8.64663987604256,42.25726826112365,0 8.646749078022818,42.25737558503189,0 8.646913902459477,42.25740221245396,0 8.64704682633926,42.25731369382081,0 8.647410725191751,42.25725262420865,0 8.647751214946901,42.25730617281904,0 8.647893161843578,42.25752502550844,0 8.648282238259984,42.25760802474789,0 8.648464541976546,42.25755694405613,0 8.648676580628983,42.25756312346328,0 8.648938531987586,42.25761206681837,0 8.64923052916982,42.25770932903625,0 8.649351192640676,42.25755812374336,0 8.649655090820056,42.25754586021309,0 8.649413586971937,42.25779830811915,0 8.649541687120266,42.2578180292681,0 8.649741200853999,42.25766248387357,0 8.649728947345071,42.25781664674984,0 8.649983726725704,42.25764913542879,0 8.650141118734851,42.25764939616334,0 8.650172052159434,42.25777887267809,0 8.650131923922419,42.25796669542284,0 8.650217193369802,42.25803874630743,0 8.650059713813167,42.25810988044208,0 8.650115162678746,42.25829244249437,0 8.650423659774056,42.25808538618411,0 8.65057543171655,42.25804133696335,0 8.650728008332571,42.25822212186476,0 8.650754121451838,42.25838755864824,0 8.650553898854456,42.25851191167315,0 8.650840323183511,42.25850506896791,0 8.650942933173296,42.2584137524835,0 8.65110691940445,42.25839580148601,0 8.651069258135227,42.25827115735899,0 8.651227003664266,42.25822677843705,0 8.651597014436687,42.25825102729213,0 8.651934058356222,42.25824585685198,0 8.651972297563661,42.25838831649854,0 8.652197523347485,42.25835806847006,0 8.652326419458589,42.2583375858457,0 8.652468410768579,42.2582797945816,0 8.652678552327453,42.25832712055686,0 8.652839129107527,42.25828704535499,0 8.652939315212338,42.25837612057067,0 8.653085513746257,42.25837253186054,0 8.653215732551676,42.25829307847859,0 8.653363532712506,42.25840184077272,0 8.653922224468925,42.25843889339365,0 8.654017365568523,42.25850147427273,0 8.65389816767081,42.25860709296624,0 8.653938485638655,42.2586860788884,0 8.654183002057646,42.25863245510879,0 8.654290252323115,42.25852749413987,0 8.65458260207828,42.25848372821515,0 8.654718706655169,42.25842715069528,0 8.654990049336213,42.25849787288674,0 8.655065308998156,42.25842144461942,0 8.655318288280679,42.25848871568998,0 8.655478640953618,42.25843437100978,0 8.655704482642568,42.25838623450828,0 8.655808265578013,42.25854739203548,0 8.655921732539401,42.25864911894302,0 8.656088098597131,42.25855874693734,0 8.656281826329506,42.25859804700782,0 8.656383820558847,42.25859688952966,0 8.656479233248078,42.25868622494949,0 8.656569329391864,42.25872231043201,0 8.656698069787726,42.25886870651554,0 8.656830847707546,42.25909162470821,0 8.657104161883279,42.25930233726209,0 8.657241257707531,42.25937598965164,0 8.657407758450404,42.2592989940364,0 8.657562619935639,42.25921371573482,0 8.657696238281787,42.25940892300648,0 8.657964525133281,42.25941287840354,0 8.658161802110875,42.25948767515509,0 8.658303039137509,42.25943438001738,0 8.658376534546228,42.25941248192301,0 8.658567888479208,42.25952419207202,0 8.658783357455508,42.25962475662858,0 8.658984997915876,42.25958687146753,0 8.659055116455132,42.25948305994019,0 8.659300209941518,42.25944724104279,0 8.659529649268416,42.25947118172211,0 8.659514632715055,42.25938098649083,0 8.659623268869648,42.25939820011271,0 8.659724525846171,42.25947382525358,0 8.659822493923182,42.2594684248236,0 8.6599923765342,42.25926898247492,0 8.660152680600461,42.25920214049034,0 8.660350016268508,42.25910916238983,0 8.660510403604359,42.25901911331276,0 8.660674440047988,42.25903773353896,0 8.660896816872143,42.25893088046893,0 8.661032557252359,42.25884665141056,0 8.661439175343958,42.25868412715719,0 8.661757225608682,42.25862107794418,0 8.661911546897588,42.25873482480423,0 8.66215043794973,42.25868506344839,0 8.662432990179102,42.25857935066583,0 8.663002355465142,42.25881923466201,0 8.663238701754402,42.25886420419175,0 8.663438100823138,42.25891210354084,0 8.663831795779654,42.25894482336697,0 8.66411180344015,42.25893383962613,0 8.664494077913346,42.25894844708717,0 8.664949011666696,42.25896886093842,0 8.665153942278657,42.25901199029007,0 8.665358838492292,42.25909081665922,0 8.665605550447037,42.25916733548529,0 8.665816421334828,42.25924583143843,0 8.66609001880235,42.25941099692405,0 8.666286882046776,42.25955362452909,0 8.666436468884813,42.25963193162026,0 8.66670416984709,42.25959395680297,0 8.666888191708519,42.25954810590701,0 8.667077104169554,42.25973132851174,0 8.667278667984473,42.25989689726241,0 8.667455181364264,42.25989607928996,0 8.667642720970989,42.2599214241289,0 8.667663256295629,42.26022281038054,0 8.667793153619566,42.26015228133458,0 8.667882189155552,42.26002154029219,0 8.668059841989715,42.25998407058141,0 8.66818791632593,42.26017154201479,0 8.668407747909828,42.26015940767078,0 8.668619797203473,42.26016555027548,0 8.668855353407213,42.26020252085001,0 8.66921467736824,42.2603718710284,0 8.669334619224527,42.26044199493705,0 8.669504546849019,42.26045938527506,0 8.669757549579984,42.26052662453409,0 8.669954763337909,42.26062460761806,0 8.670079316115121,42.26071678599111,0 8.670231630166732,42.26072622390753,0 8.670310896994993,42.26089407850674,0 8.670391963918608,42.26101989132975,0 8.670329111219761,42.26110010734585,0 8.670181543301956,42.26112610306136,0 8.670171284301107,42.26127569865131,0 8.670327822343516,42.26133933909539,0 8.670557103490424,42.26138557685137,0 8.670855961874423,42.26134676461355,0 8.671130142703905,42.26134947191576,0 8.671255005143133,42.26143270816526,0 8.671101907142976,42.26146347238112,0 8.67085075846656,42.26152285289371,0 8.670904906353334,42.26172778987473,0 8.671030906671632,42.26177437553486,0 8.671262690907596,42.26176157597501,0 8.671512316473176,42.26177099282247,0 8.671751708923757,42.26187021340202,0 8.67176098726981,42.26195090858771,0 8.671575269516513,42.26208788461751,0 8.671570316887287,42.26221844721944,0 8.67196664864538,42.26237325251754,0 8.672049753752775,42.26225532901018,0 8.672163735850656,42.26210982072325,0 8.672297994209526,42.26210686744986,0 8.672251532446648,42.26223079885307,0 8.672241526511527,42.26233486891017,0 8.672280288791114,42.2624460617527,0 8.672458864911405,42.26238176274786,0 8.672549725963648,42.26241333226238,0 8.672654002529669,42.26257891187649,0 8.672734108222869,42.26271905474356,0 8.672919715386506,42.26264098080356,0 8.672993985794291,42.26279483172569,0 8.673201934395149,42.26292791258594,0 8.673406408994202,42.2630022871279,0 8.673620443586652,42.26296815372528,0 8.67378771240341,42.26306689276826,0 8.673959987914186,42.26317963328222,0 8.674087356102781,42.26320383047347,0 8.674125392003651,42.26315175512376,0 8.674030698196017,42.26305793100653,0 8.674452565802305,42.26297572579381,0 8.674590134080592,42.26305379485147,0 8.674721067223681,42.26313758472619,0 8.674886194158447,42.26308294895744,0 8.675031452694606,42.26292589310331,0 8.675200559479341,42.26297098502683,0 8.675307170355428,42.26288388621914,0 8.675427675724951,42.26289953720313,0 8.675528345276525,42.26299303005983,0 8.675754493876493,42.26293591335239,0 8.675769722570239,42.26305197543194,0 8.671816410787546,42.27360692543823,0 8.639545000134103,42.27366023518377,0 8.64370329485606,42.25728520466402,0 8.643941220272428,42.25724981266221,0 8.643936873537697,42.25739907753083,0 
						</coordinates>
					</LinearRing>
				</outerBoundaryIs>
			</Polygon>
		</Placemark>
		<Placemark>
			<visibility>0</visibility>
			<styleUrl>#falseColor</styleUrl>
			<ExtendedData>
				<SchemaData schemaUrl="#S_Cantonnements_IDDDDSSSSD">
					<SimpleData name="OBJECTID">7</SimpleData>
					<SimpleData name="Area">5.40542e+06</SimpleData>
					<SimpleData name="Perimeter">15372.1</SimpleData>
					<SimpleData name="Canton_p_">10</SimpleData>
					<SimpleData name="Canton_p_i">9</SimpleData>
					<SimpleData name="Dpt">2A</SimpleData>
					<SimpleData name="Date_c">1978/06/20</SimpleData>
					<SimpleData name="Libelle">Cantonnement de PROPRIANO</SimpleData>
					<SimpleData name="Prudhomie">Ajaccio</SimpleData>
					<SimpleData name="super">5.40537</SimpleData>
				</SchemaData>
			</ExtendedData>
			<Polygon>
				<outerBoundaryIs>
					<LinearRing>
						<coordinates>
							8.823996915937048,41.64404853485046,0 8.823997223079401,41.63397140814597,0 8.824098484580546,41.63406648319168,0 8.824432976977764,41.63395097464532,0 8.824331481695546,41.63426381763539,0 8.824128172915856,41.63466370123371,0 8.824436659550571,41.63471391148586,0 8.824692315523844,41.63464217974091,0 8.824847064017822,41.63457264290626,0 8.824993873568857,41.63470617293881,0 8.824857981692947,41.63511380919648,0 8.825094975842971,41.63523326041548,0 8.82528539285409,41.63516347005391,0 8.825465253768492,41.63545845140693,0 8.825910242772297,41.63549371704563,0 8.825978236792512,41.6352845399804,0 8.826159947604349,41.63564457241758,0 8.826375407597155,41.63564564731691,0 8.826464281185565,41.63585300002715,0 8.826681013903258,41.63594861424286,0 8.827166857590058,41.63589406812527,0 8.827436124477646,41.63586261065476,0 8.827649038329476,41.63567460337354,0 8.827936318217473,41.63564479269533,0 8.828178806224066,41.63573625411361,0 8.828175191905343,41.63589980156247,0 8.828433699743638,41.6358912710953,0 8.828639338503619,41.63598305312492,0 8.828704607410977,41.63623906041361,0 8.828589609383437,41.63651251435046,0 8.828432620851544,41.6367357068573,0 8.828489201021172,41.63684761414909,0 8.828803453846135,41.63668505125794,0 8.828977514651783,41.63668848830327,0 8.829167084935534,41.63655179684297,0 8.829369893484929,41.6364634396494,0 8.829574598018773,41.63648743796689,0 8.829440031272465,41.63667364705536,0 8.829307302426631,41.63693651219405,0 8.829239880318976,41.63712780759022,0 8.829034719410235,41.63739213589099,0 8.82947550814059,41.63736247071763,0 8.829692438250545,41.63735452987093,0 8.829567509487969,41.63774101705934,0 8.829609575530819,41.6380028136882,0 8.829450737115119,41.63816095547271,0 8.829590127800753,41.63826812754916,0 8.829761130873454,41.63833511123504,0 8.829728148260294,41.63847891641564,0 8.829809228322558,41.63866796891214,0 8.830081957505316,41.63874073899466,0 8.830395680843743,41.63846752304347,0 8.830654140598501,41.6384232878658,0 8.830656298959671,41.63854991005153,0 8.831015873342739,41.63848204008573,0 8.831358493078563,41.63844637876703,0 8.83133733312809,41.63860111192007,0 8.831698859829867,41.63858757522335,0 8.831719715000975,41.63876936038739,0 8.832057041989238,41.63875185127247,0 8.832468532168329,41.6388318525249,0 8.832595146402266,41.63857915131071,0 8.832803982237891,41.63846812889908,0 8.832964666489556,41.63837503450149,0 8.833348353578057,41.63861460914745,0 8.833725728168034,41.63879206342021,0 8.833812282834867,41.63918698588454,0 8.834226785572362,41.63915612908099,0 8.834439821667246,41.63923855265739,0 8.834737662691889,41.63942948057763,0 8.835152788377677,41.6394164363851,0 8.835384719048864,41.6392166148226,0 8.835629002231267,41.63914997257184,0 8.835951680382905,41.63902350310806,0 8.836070947836298,41.63894437808297,0 8.836145952045783,41.63880441321639,0 8.83632899560881,41.63862702422518,0 8.836568463051723,41.63854815929803,0 8.836744367411962,41.63863984463175,0 8.836815102046431,41.63882055970878,0 8.836932965803307,41.63900839539075,0 8.837170942399135,41.63919560339421,0 8.83730751135468,41.63909942015799,0 8.837448489622259,41.63917525228656,0 8.837594390080055,41.63924098409341,0 8.837840158916217,41.63924744351744,0 8.838100123478974,41.63925308968093,0 8.838303613379823,41.63921823219412,0 8.838372484895674,41.63934549840617,0 8.838507837245363,41.63951805017944,0 8.838748812653151,41.63948907890897,0 8.838934558312603,41.63945523630717,0 8.839340128529374,41.63955875955191,0 8.839588219452219,41.63962310013134,0 8.839428164719191,41.63973401983736,0 8.839255096620779,41.63984568445415,0 8.839617251747867,41.63984993855734,0 8.839976887290693,41.63981773993401,0 8.84028270972415,41.63971275258212,0 8.840428786045308,41.63979185965601,0 8.840781926743432,41.63968416088191,0 8.841008267940339,41.6398738132285,0 8.841143091796816,41.64027489387335,0 8.841142907604036,41.64051857960271,0 8.84131042934008,41.64076158525599,0 8.841276847884384,41.64088757782477,0 8.841446570707458,41.64098853653996,0 8.841352656195372,41.64111798499447,0 8.841249938606296,41.6413363033041,0 8.84126653264676,41.64153439887345,0 8.841234850361683,41.64179595525444,0 8.841424415848632,41.64189309984809,0 8.841579028027532,41.6421261338087,0 8.841316172615494,41.64219742264486,0 8.841205125443956,41.64235730741756,0 8.841153409881324,41.64251557895056,0 8.841371069923674,41.64252631919389,0 8.841575454400257,41.64252353811308,0 8.841609089957036,41.64269030973464,0 8.841588667370775,41.64286374813104,0 8.841841393997001,41.64283320526329,0 8.842023882644314,41.64266208675409,0 8.842196648179911,41.6425941720336,0 8.842152484788329,41.64275647444135,0 8.84202324148491,41.64291293951133,0 8.842363671480701,41.64278543534603,0 8.84269978578601,41.64270905463247,0 8.843060765889938,41.64272496963027,0 8.843321545073465,41.64250473407844,0 8.84360338499083,41.64247965979119,0 8.843899034722646,41.64248503396961,0 8.843841410570796,41.64264364566179,0 8.844100140765544,41.6426136462486,0 8.844361311076403,41.64273613854147,0 8.844986344820125,41.64265747560214,0 8.845471894220251,41.64255288537091,0 8.845885886595433,41.64249345349509,0 8.846215628059525,41.64241296441121,0 8.846433685921934,41.64250936057255,0 8.846390480821235,41.64275105057315,0 8.846647433264279,41.64265688093507,0 8.84674100097282,41.64248906624976,0 8.847083896928369,41.64246762387856,0 8.847164136879094,41.64263618585214,0 8.847752325854298,41.64281489999603,0 8.847716992025397,41.64313379465998,0 8.847747297889374,41.64340786689489,0 8.848042673463015,41.64342217217613,0 8.848105932446465,41.64354082976628,0 8.848334259452329,41.64352773804089,0 8.848480633167197,41.64359789289806,0 8.848501537640189,41.64377967495743,0 8.848713356223744,41.64382643998296,0 8.848690218886176,41.64414820617581,0 8.848894102430265,41.64408206711978,0 8.849032680869509,41.64381883997977,0 8.849187709108834,41.64402060095418,0 8.84921984239055,41.6441490763025,0 8.849110833098397,41.64442221170336,0 8.849185835199606,41.64453930286628,0 8.849398109022445,41.64459050363091,0 8.849294751025525,41.64484903369015,0 8.849183719186762,41.64500892623743,0 8.849373971586116,41.6452059894545,0 8.84961160602872,41.64530750582005,0 8.849954078203659,41.64525840962254,0 8.850311551752061,41.64537982930453,0 8.850621293647393,41.64542990068406,0 8.850847329470533,41.64560437973982,0 8.850827800578509,41.64584471420331,0 8.85100908341505,41.64583699370111,0 8.850896697129013,41.64598357689329,0 8.850906356187846,41.64611334110879,0 8.851185049569619,41.64619732536597,0 8.851320840559671,41.64632699514477,0 8.851111377907287,41.6464318397106,0 8.850799110940603,41.6464854547166,0 8.8512410450645,41.64660649042042,0 8.851509719614668,41.64670890054895,0 8.85181389320854,41.64664592940489,0 8.851996487827645,41.6467327469116,0 8.851943168622714,41.64702679057362,0 8.851837080339674,41.64714177269268,0 8.851617657380633,41.64731234863449,0 8.851430322289833,41.64723740606706,0 8.851187402765976,41.64743432146441,0 8.851123702671098,41.64757989725983,0 8.851260735374403,41.6477684070498,0 8.851506233308303,41.6479819356054,0 8.851717441477858,41.64801087914385,0 8.851871928300991,41.64792703929019,0 8.852149913721075,41.64799231789247,0 8.852413672323912,41.64795308620342,0 8.852500774121888,41.6477802817812,0 8.852569411521092,41.64758979218023,0 8.852892963871364,41.64754177318529,0 8.853127956928217,41.64751222347093,0 8.853438151879782,41.64742658780446,0 8.853592389574999,41.64729366709126,0 8.853799187508695,41.64706936333273,0 8.853927847985489,41.64694237275484,0 8.854186487502091,41.64693467117259,0 8.854394770035313,41.646818284764,0 8.854608756483593,41.64692114862559,0 8.854819684692732,41.64695902829295,0 8.855129291108558,41.64711263673216,0 8.855306422497913,41.64721582952139,0 8.85565664057629,41.6469859678116,0 8.855696124661531,41.6468364233051,0 8.855474116415065,41.64658495858311,0 8.85527172004724,41.64642073468598,0 8.855341228247994,41.64628553371668,0 8.855581491095773,41.64626103169711,0 8.855835992435694,41.64632943427759,0 8.85611193492743,41.64629306448773,0 8.856353441066759,41.64632740072854,0 8.856554946400577,41.64645954056785,0 8.856823864918631,41.64663422482887,0 8.857040443171362,41.64665749449694,0 8.857296463754455,41.64678739587963,0 8.857034845015463,41.64692916497565,0 8.857198071062143,41.64700101985857,0 8.857379984491223,41.64701110506452,0 8.857377785070737,41.64722277657432,0 8.857223935206967,41.64732443975892,0 8.857573192911005,41.64736508353554,0 8.857679989992944,41.64726879932222,0 8.85796849102293,41.64723884488821,0 8.858050322417391,41.6473876726492,0 8.858521950282592,41.64749626500851,0 8.858915154665246,41.6475593738357,0 8.859169664732027,41.64762776895748,0 8.859522880517407,41.6475789198396,0 8.859721199843049,41.64753985888285,0 8.860020008072089,41.64745932177307,0 8.860249700305122,41.64747112113464,0 8.860744199988844,41.64752394225196,0 8.860987766245447,41.64764830319906,0 8.861135662489499,41.64782636010764,0 8.861436725501859,41.64779121227611,0 8.861529314416714,41.64791710503077,0 8.861310820787125,41.64809657358539,0 8.861497369646244,41.64812870110224,0 8.861332221365874,41.64827118614784,0 8.861622426745082,41.6483044992468,0 8.861843397421879,41.64828912606811,0 8.862114249987293,41.64824946405068,0 8.862376560418671,41.64839416776245,0 8.862636635429917,41.64844706157754,0 8.862879941795573,41.64855715221363,0 8.863292783233447,41.64847451683708,0 8.863425641432968,41.64872662868045,0 8.863579928644656,41.64865260223539,0 8.863582637372577,41.64848106720797,0 8.863697574602632,41.6482664858088,0 8.864044363316136,41.64813140970973,0 8.86422429578694,41.64809875320775,0 8.864528948490765,41.64795895646729,0 8.864874901221228,41.64809527666182,0 8.865201766369335,41.64817288876844,0 8.865573007884024,41.64810245473991,0 8.865845018990184,41.64812073623659,0 8.866114590330273,41.64809184940634,0 8.866472305526818,41.64792400366372,0 8.866758567023245,41.64779061364872,0 8.867036409098032,41.64752827943993,0 8.867188004814054,41.64732318970881,0 8.867475149138929,41.6472566921834,0 8.867893560241535,41.6470773177467,0 8.868190746466563,41.64691116171105,0 8.868547285551859,41.64668535707634,0 8.868669652871738,41.64650872418115,0 8.868864640451699,41.64633237722187,0 8.868922379868426,41.64619873582401,0 8.869089929414105,41.64616142778519,0 8.874813037455343,41.6680054067542,0 8.823996915937048,41.64404853485046,0 
						</coordinates>
					</LinearRing>
				</outerBoundaryIs>
			</Polygon>
		</Placemark>
		<Placemark>
			<visibility>0</visibility>
			<styleUrl>#falseColor</styleUrl>
			<ExtendedData>
				<SchemaData schemaUrl="#S_Cantonnements_IDDDDSSSSD">
					<SimpleData name="OBJECTID">8</SimpleData>
					<SimpleData name="Area">1.31036e+07</SimpleData>
					<SimpleData name="Perimeter">29655</SimpleData>
					<SimpleData name="Canton_p_">11</SimpleData>
					<SimpleData name="Canton_p_i">10</SimpleData>
					<SimpleData name="Dpt">2A</SimpleData>
					<SimpleData name="Date_c">1983/02/15</SimpleData>
					<SimpleData name="Libelle">Cantonnement de BONIFACIO</SimpleData>
					<SimpleData name="Prudhomie">Bonifacio</SimpleData>
					<SimpleData name="super">13.1037</SimpleData>
				</SchemaData>
			</ExtendedData>
			<Polygon>
				<outerBoundaryIs>
					<LinearRing>
						<coordinates>
							9.099006324095944,41.3823227164008,0 9.179564615136986,41.36287740138494,0 9.179596695180447,41.36458975142506,0 9.179521233857418,41.36469342654886,0 9.179817159575707,41.36505676557121,0 9.180469124395998,41.36546908721436,0 9.180462969935498,41.36571142517122,0 9.180351003727232,41.36581731072175,0 9.180652483229196,41.36594370373049,0 9.180275906842482,41.36610221507826,0 9.180336600468886,41.36636014932877,0 9.180309508765486,41.36676179109638,0 9.180490154136706,41.36675532007889,0 9.180873587698088,41.36674996528784,0 9.180886571313511,41.36691614439903,0 9.180447747352062,41.36693556658106,0 9.180239143080966,41.36699105158114,0 9.17984815943203,41.36697007531465,0 9.179530823842303,41.36710624780166,0 9.179291900441399,41.36731088803482,0 9.178945467263176,41.36748542707456,0 9.178494843734883,41.36746091255834,0 9.178418563818621,41.36764588640802,0 9.17862295846319,41.36776208881587,0 9.178732269613,41.3679313668593,0 9.178960723974869,41.36801754116343,0 9.179231834218484,41.36815916930648,0 9.179258096905709,41.36853883116591,0 9.179000863759686,41.36868297122608,0 9.17883364529497,41.36881541306202,0 9.178690523064503,41.36900711084063,0 9.17828271435714,41.36899518238677,0 9.178192924870174,41.36909793753487,0 9.178415390387503,41.36916126120722,0 9.178626846178659,41.36925471511703,0 9.178471898674271,41.36955784275391,0 9.178516517504223,41.3699096079673,0 9.178744945665368,41.37002882053859,0 9.178675190472267,41.37027500692739,0 9.178759064977488,41.37032796704121,0 9.178472930679714,41.37065689065819,0 9.178010740216012,41.37062414421531,0 9.177500052152293,41.37064790182667,0 9.177352433979289,41.37080861940755,0 9.177622606631179,41.37094138007114,0 9.177742436636617,41.37090912950616,0 9.178120351906696,41.37094072671125,0 9.178253986838216,41.37113799802646,0 9.178285821384495,41.37144767968653,0 9.178430094880884,41.37151127103284,0 9.178353445869147,41.37161501667607,0 9.178065668955648,41.37163957311756,0 9.177950798923602,41.37170723820788,0 9.177790291679106,41.37180266459607,0 9.177904711438693,41.37189752733762,0 9.177984125588271,41.37220879438652,0 9.177936917555147,41.37231075823875,0 9.178017146391122,41.37254072580478,0 9.178126019189538,41.37277253158292,0 9.17800798705931,41.37294395965237,0 9.177737882433004,41.37311208878371,0 9.177781428012546,41.37326481157233,0 9.177861184540127,41.37349034358139,0 9.177666110159919,41.37373964709675,0 9.177568972097685,41.37386248882814,0 9.17753535187396,41.37390291588476,0 9.177319264903803,41.37415527567831,0 9.177044462522911,41.37449065154734,0 9.176855186780033,41.3748833527353,0 9.176704737761149,41.37506209723711,0 9.176646676107945,41.37512900255344,0 9.176468131327864,41.37526658907281,0 9.176127038355597,41.37561400788209,0 9.175785357770092,41.37566681792479,0 9.175558194450497,41.37581537921338,0 9.175282055689401,41.37577136629615,0 9.175369840891827,41.3754383782907,0 9.175002047712116,41.37520169391824,0 9.175058317974884,41.37550721931142,0 9.174720750435004,41.37534281316293,0 9.174487105426223,41.37541944281939,0 9.174657651900485,41.37568502181666,0 9.174658481683649,41.37589300726825,0 9.174935983637065,41.37618336781365,0 9.175327372469809,41.37638558994945,0 9.175165920764323,41.37651678309779,0 9.174908586898587,41.37662698892382,0 9.174729612856481,41.37677174104535,0 9.174525323599529,41.37674570237165,0 9.174315507682049,41.3766789261425,0 9.173984782344773,41.37668999645309,0 9.173895566154219,41.37686503384236,0 9.174047040518269,41.37701837434561,0 9.174270234421789,41.37707719930048,0 9.17427626606877,41.37721165590141,0 9.174090336146911,41.37728004180379,0 9.173965324380573,41.37735277953367,0 9.174152134073648,41.37750398334403,0 9.174386883497267,41.37759335941337,0 9.174591286205786,41.37766492733876,0 9.174736350958636,41.377802583327,0 9.17470671672401,41.37780258970618,0 9.174382536533079,41.37781951501353,0 9.174034071124272,41.37777540790893,0 9.173720719947504,41.3776381052672,0 9.17364393374239,41.37779631935638,0 9.173710528563049,41.37799854249326,0 9.17371821325457,41.37828200608566,0 9.173983863848495,41.37834987187053,0 9.173942833496618,41.37849878126842,0 9.174176392462465,41.37854358714135,0 9.174231459877893,41.37878222143452,0 9.174251263361146,41.37895691669901,0 9.174336549663726,41.37924550938784,0 9.174086404798704,41.37946777781075,0 9.173852964639501,41.37963546416319,0 9.173656568080286,41.37983930303797,0 9.173417818888868,41.38005730927431,0 9.173130957574248,41.38025768796571,0 9.172933378970489,41.38046159679897,0 9.173054539452735,41.38054177179377,0 9.172894120057048,41.38070504119737,0 9.172580911048879,41.38074718996373,0 9.172547183132181,41.38090904996609,0 9.172607960579175,41.38104555414841,0 9.172536351679966,41.38120791839821,0 9.17228500001848,41.38124096969535,0 9.172074153747598,41.38137603602091,0 9.17236992392243,41.38144833563453,0 9.171992785429953,41.38166934655182,0 9.171602951013526,41.38168219547466,0 9.171440883180493,41.38171877674564,0 9.171507133744807,41.38188441482353,0 9.171473504093303,41.38206948258856,0 9.171125561702524,41.38210836905021,0 9.1711012456157,41.38224733818465,0 9.170923206141897,41.38244559760218,0 9.170894103946683,41.3826509271013,0 9.170672655796107,41.38280895243248,0 9.170462928301774,41.38293234053909,0 9.170295450351865,41.3828513902256,0 9.170163982386793,41.3831307621157,0 9.169991075938793,41.38317692452911,0 9.169919678012821,41.38328570265522,0 9.170136301491016,41.38337171950618,0 9.170035765428501,41.38357422233581,0 9.169838166820984,41.38377812578645,0 9.169906487742466,41.38394096103637,0 9.169679370646616,41.38423504021159,0 9.169428717835189,41.38445286265475,0 9.169164911162241,41.38448040872409,0 9.168959774948146,41.38436869597736,0 9.16874426976217,41.38441564417593,0 9.168690555634225,41.38459031687691,0 9.168444594086376,41.38457392623227,0 9.168343542657471,41.38463806622678,0 9.16823592539393,41.38481867348757,0 9.168049627615606,41.38485046306182,0 9.16808689640618,41.38502231780291,0 9.167950089164005,41.38511808140935,0 9.167752951531668,41.38532641695284,0 9.167537381903719,41.38550640132829,0 9.167346192282903,41.38558134193285,0 9.166848210959806,41.38565874037654,0 9.166744551897352,41.38547571664046,0 9.166612804499961,41.38546313796068,0 9.166439338452633,41.38557093488239,0 9.166223355168777,41.38561344255194,0 9.165940590321,41.3855965902945,0 9.165497151166404,41.38558497542544,0 9.165280476771098,41.38548734565329,0 9.16525696168566,41.38568965663374,0 9.165010871994115,41.38575005108682,0 9.164848334349811,41.38563754467407,0 9.164759161140115,41.38574649925335,0 9.164562240322942,41.38592356570345,0 9.164321247003802,41.38579793838586,0 9.164268171541178,41.3859341771517,0 9.164135866193778,41.38596091457521,0 9.164039772107891,41.38587118115827,0 9.163924030570495,41.38578620519185,0 9.163900382076173,41.38557513500668,0 9.163527490147079,41.38561371720591,0 9.163294948414528,41.38581257422609,0 9.163296102348916,41.38593482468912,0 9.163001163136224,41.3858258438337,0 9.162918327708628,41.38608351969079,0 9.163038874740463,41.38616909941506,0 9.162692061865766,41.38635253136117,0 9.162288382208263,41.3863135041039,0 9.162109379088378,41.38633591473189,0 9.162050046170279,41.38655824307499,0 9.161733387686963,41.3867577088134,0 9.161469571842673,41.3868075578935,0 9.161174677173229,41.38668785538579,0 9.160795678418889,41.38659108410205,0 9.160819025831772,41.38643164162407,0 9.160573059248712,41.38641523388854,0 9.160315192117023,41.38654329173391,0 9.159997374509832,41.38657586025418,0 9.159720253650212,41.38650061689236,0 9.1596325139579,41.38647823220702,0 9.159413589582872,41.38642626238101,0 9.158993371200822,41.38637661428358,0 9.158578617539884,41.38631145668347,0 9.158152426036036,41.38635055734422,0 9.157929580271835,41.38618364453572,0 9.15769463824744,41.38613710188055,0 9.157635610280845,41.38626208872595,0 9.157376349698083,41.38616522728432,0 9.156836598898469,41.38618438663846,0 9.156757658779547,41.38601057884227,0 9.156655122976778,41.38596051331494,0 9.156397384968002,41.38601176970232,0 9.156458083039052,41.38611435756884,0 9.156263058291421,41.38614218924017,0 9.156152093405741,41.38615780898606,0 9.155917104784258,41.38609965860451,0 9.155316856445946,41.38617424340305,0 9.155241230687889,41.38618773151872,0 9.15497505618713,41.38623770752393,0 9.154680413773741,41.38615368742977,0 9.15454809692902,41.38604648806374,0 9.154170584247986,41.38619781534884,0 9.153955345941846,41.38626971780979,0 9.153637624182785,41.38639243937758,0 9.153505931535758,41.38657001696254,0 9.153320612357794,41.38664457885756,0 9.152913171495944,41.38677092032177,0 9.152821802097177,41.38661393061569,0 9.15274956484196,41.38650310821156,0 9.152550480811698,41.38633653920105,0 9.15246570998522,41.38619700838283,0 9.152194770445096,41.38601244848111,0 9.151802784181129,41.38590482402009,0 9.151491514442466,41.38583161920228,0 9.151064144060701,41.38571451768104,0 9.151016317914378,41.38585578923386,0 9.150800700664643,41.38585717427406,0 9.150764701246636,41.38592005626983,0 9.150535466163481,41.38593833236922,0 9.150414278675036,41.38566796181848,0 9.150334085779592,41.38538172874571,0 9.150026684913669,41.38525560973028,0 9.149798537628007,41.38518364249754,0 9.149354115328606,41.38515148883489,0 9.149126205040563,41.38507057768691,0 9.148969770587851,41.3850933936362,0 9.149000954743949,41.38534240188586,0 9.148864256924284,41.38551759640632,0 9.148901474827964,41.38568945739188,0 9.148602495346751,41.38592174699055,0 9.148447655351166,41.38607124859625,0 9.148328903964522,41.38631500244859,0 9.14849174181005,41.38648643990566,0 9.148457008228078,41.38663942109402,0 9.148288789753888,41.38666294563062,0 9.148342499757813,41.38681149255977,0 9.148577719192303,41.3868830370097,0 9.148746263254811,41.38698538222428,0 9.148885496308697,41.38716895513052,0 9.149042918081234,41.3873675033308,0 9.149025477183788,41.38756051353374,0 9.14882808799911,41.38761079525317,0 9.148774743109245,41.3877336483631,0 9.149010530176156,41.38785515675152,0 9.149196277377136,41.38792968018831,0 9.149454637975412,41.38800697185609,0 9.149678599227556,41.38816222631191,0 9.149745318348863,41.38834391694959,0 9.149979320014467,41.38840392542647,0 9.150184435783398,41.38853799345738,0 9.150586143529505,41.38851379162593,0 9.150773638844658,41.38843731793263,0 9.150988275730283,41.38823688985333,0 9.151235519099421,41.38825413457378,0 9.151356054856837,41.3884066895189,0 9.151668656749607,41.38853695682121,0 9.151939319402778,41.38845100533688,0 9.15216743302353,41.38848904331213,0 9.152275579052183,41.38867002207458,0 9.152408177682737,41.38864595997939,0 9.1527862338388,41.38875620867947,0 9.152996769660735,41.38868459244225,0 9.153063685253361,41.38880109265521,0 9.153028019261003,41.38896752463872,0 9.15337040312734,41.38895403121371,0 9.153580850557304,41.38903777327995,0 9.153831243549844,41.38878339947429,0 9.154023544174589,41.38875216539085,0 9.154179791922008,41.38861596348242,0 9.154377986473818,41.3886736574746,0 9.15436407306963,41.38842003678711,0 9.15425483462398,41.38817305537891,0 9.154416320724073,41.38823117639591,0 9.154663525754717,41.38839305613828,0 9.15503506308546,41.38819655328944,0 9.155431348293108,41.38817712516673,0 9.155541637722418,41.3885677897678,0 9.156183797334503,41.38847460678419,0 9.156305348935728,41.38880387862918,0 9.156965752152999,41.3887819114318,0 9.157034480695057,41.38854741336552,0 9.15736715217642,41.38850949380254,0 9.157708359220758,41.38854070018826,0 9.158237575759589,41.38853378024348,0 9.158633339286219,41.38847598017943,0 9.158675276223383,41.38846898628924,0 9.159306953633362,41.38862284259854,0 9.159558029516246,41.38873180117865,0 9.159583005341535,41.38874368708707,0 9.159818816534425,41.38886517302862,0 9.16016172526156,41.38891234076625,0 9.160683768849358,41.38881566494738,0 9.161102910476565,41.38879930222744,0 9.161421112487385,41.38874795828031,0 9.161418898911462,41.38845970256114,0 9.162012825952651,41.38825868359107,0 9.162594660652029,41.38817803264298,0 9.163734495433831,41.38808244539151,0 9.164539869941715,41.38824185875163,0 9.16533994471159,41.38849622868074,0 9.164812441758233,41.38968878193833,0 9.163940917062421,41.38943157792644,0 9.163615799727086,41.3893065623888,0 9.163297858866848,41.38924896924551,0 9.16280615316917,41.38929650512642,0 9.162151270681292,41.38938156509077,0 9.161689010282693,41.38940499779527,0 9.161078005958396,41.38955704546368,0 9.160592293923084,41.38969438722205,0 9.160303827026514,41.38979125526999,0 9.159949891078965,41.38977421683229,0 9.159547369645701,41.38973510870639,0 9.159306554894879,41.38956660312023,0 9.158981208651213,41.38942819594922,0 9.158590569832722,41.38943390283315,0 9.158184016668468,41.38955753073862,0 9.157866282077389,41.3896356222968,0 9.157518575724598,41.38969944933406,0 9.157212808719084,41.38977860289352,0 9.156828160032982,41.38987411938492,0 9.156324523721487,41.38993216727405,0 9.156314709825391,41.39036400164488,0 9.156274100692453,41.39049501951871,0 9.156364725882806,41.3906002673797,0 9.156413649439612,41.39072588659276,0 9.15647421881285,41.39092758797704,0 9.156481351922752,41.39113965425729,0 9.156494514148982,41.39131921467983,0 9.156591504729267,41.39145086389632,0 9.156766630014381,41.39162601495649,0 9.156954383997702,41.39178611878496,0 9.157063590761695,41.39202149361583,0 9.157014735493982,41.39215300906472,0 9.156740292992897,41.39222580743606,0 9.156607827247726,41.39221772391756,0 9.156457301874678,41.39207323152642,0 9.156204952804678,41.39205273368644,0 9.156012538942836,41.3919491586694,0 9.155861494371585,41.39176630472933,0 9.155704277337513,41.39158114426693,0 9.155685512957422,41.39144924223807,0 9.155558835852698,41.39130598956555,0 9.155508302769579,41.39105368364463,0 9.15544773928579,41.3908966236234,0 9.155327759313433,41.3908163587377,0 9.155212394779468,41.39069028060089,0 9.15519833689773,41.39044648971741,0 9.155130888112812,41.39018002529632,0 9.155045063943842,41.3899414539016,0 9.15484638572828,41.38974539966532,0 9.154469233790321,41.38998956032065,0 9.154241260801474,41.39007562285315,0 9.154031714289452,41.39021235889008,0 9.15375067975457,41.39029001187013,0 9.153481332466015,41.3904107088176,0 9.153199921432901,41.39055177461365,0 9.152881180967039,41.39043080907258,0 9.152633927249978,41.39034660511858,0 9.152274004559766,41.39026204772581,0 9.152004276708873,41.39031222971889,0 9.151914935052998,41.39052028765957,0 9.152251675604681,41.3906767774893,0 9.152288670876768,41.39090222187618,0 9.152170867026413,41.39111020953423,0 9.152056832450469,41.39133136246448,0 9.15190292976947,41.39146741947506,0 9.151518922730304,41.39154680710585,0 9.151307715837248,41.39147828485846,0 9.151223176535531,41.3913298104933,0 9.151323878389586,41.39119517432964,0 9.151485792363854,41.39102292191482,0 9.151412091462753,41.39086486626202,0 9.151260826886606,41.39066862785809,0 9.151109186290128,41.39042419874786,0 9.151102165221161,41.39021301932075,0 9.151142030809911,41.38987401762596,0 9.150908305257879,41.38986131488366,0 9.150684192364276,41.38989446003904,0 9.150348918507717,41.38989680261953,0 9.150253071632402,41.3899320405525,0 9.15016325437481,41.39009101943276,0 9.150014440606222,41.39018569675378,0 9.149828213885698,41.39015138070838,0 9.14983924569996,41.38989804347167,0 9.149729875581599,41.38988409677332,0 9.149399458039751,41.38978703921544,0 9.149134775071609,41.38973959138418,0 9.148894832363187,41.38966833189459,0 9.148660216915317,41.38954675228933,0 9.148485305005,41.38944032588476,0 9.148293327855303,41.38950813703146,0 9.148232076419699,41.38935557995153,0 9.14800980791394,41.38926093339809,0 9.147684343228818,41.38917696542772,0 9.147426260041595,41.38914697306704,0 9.147198515398971,41.38924639979277,0 9.146964924724607,41.38938010572858,0 9.146730727807949,41.38940760042941,0 9.146641108184905,41.38932282056948,0 9.146814194467613,41.38919990128841,0 9.147120158492008,41.3891448710538,0 9.147161492525644,41.38900934974346,0 9.147353515814594,41.38895314456248,0 9.147400312299641,41.38886907855932,0 9.147232981716451,41.38891219002811,0 9.146921317062088,41.38896934957845,0 9.146730227480489,41.38914603031249,0 9.146628487945332,41.38920394078554,0 9.146472470420752,41.38917494318002,0 9.146326926749598,41.38897656924803,0 9.146270449059033,41.38870140585335,0 9.146298649683668,41.38840864425163,0 9.14605741970008,41.38803478639289,0 9.145918649140157,41.38803421326998,0 9.145838709647611,41.38773903444287,0 9.145604253083487,41.38756297696248,0 9.145237054814537,41.38744312350856,0 9.145033065715804,41.38749825995057,0 9.144851990661893,41.38741184199206,0 9.144683596277776,41.3872773403434,0 9.144622364605723,41.38703549763174,0 9.144369157651639,41.38688378031392,0 9.144099201222428,41.38694288604958,0 9.14388398739527,41.38709333620028,0 9.143914547199516,41.38728077696111,0 9.144178791334131,41.3873354051819,0 9.144450333552761,41.38744762755213,0 9.144571281091466,41.38754837959796,0 9.144416000630615,41.38772736484746,0 9.144271340645345,41.38772714426387,0 9.143971604277898,41.38775143595988,0 9.143695758907073,41.3877662534062,0 9.143323463544174,41.38773241242462,0 9.142902863953299,41.38774611879778,0 9.142807058918475,41.38781527540458,0 9.142892512570748,41.38799494856932,0 9.142976326546428,41.38810329395311,0 9.142882052616566,41.38835449582477,0 9.14273869729687,41.38845597731894,0 9.142540914981305,41.38856966220732,0 9.142385963440706,41.38869594743176,0 9.142134593728182,41.38887446143941,0 9.141907224752615,41.38893278432746,0 9.141560255918431,41.38902598065147,0 9.141314633426006,41.38919164721742,0 9.141051234227193,41.38942445201598,0 9.140859723368621,41.38947436546723,0 9.140631737648519,41.38953807967211,0 9.140337411286076,41.38955757155114,0 9.140019421736625,41.38962223466632,0 9.139804107133077,41.38970482711156,0 9.139564023709097,41.38968801945546,0 9.139197772949657,41.38978951051685,0 9.138898572479937,41.3899083955145,0 9.138695170780853,41.39002508946156,0 9.138599671816635,41.39017547085598,0 9.138492575402658,41.39035065593406,0 9.138252324169951,41.39045527985627,0 9.138020443845889,41.39063886136654,0 9.137972531482372,41.39081316522145,0 9.138105583024076,41.39092748129893,0 9.138076802302312,41.39110331318127,0 9.138232578819117,41.39116358581987,0 9.138198526058265,41.3913120571746,0 9.138085164449725,41.39146172649761,0 9.137828455119411,41.3916012663345,0 9.137355294436379,41.39157793397849,0 9.137085306967837,41.39165934392064,0 9.137356191878418,41.39178769405947,0 9.136991088720311,41.39174357750839,0 9.136895281273695,41.39176808725573,0 9.136096607946541,41.39167146663112,0 9.135828238380572,41.39167867176696,0 9.135637264786954,41.39180086220593,0 9.135523176667881,41.39180950600681,0 9.135271642961417,41.39195319263109,0 9.135183992704246,41.39214416861091,0 9.13498665019671,41.39228459709879,0 9.134916377063117,41.39251649102262,0 9.135026217983677,41.39272505937852,0 9.135141651484396,41.39299757483676,0 9.135351164556326,41.39300551623749,0 9.135503476426322,41.39336866842514,0 9.135664215794378,41.39318490542185,0 9.13584346184718,41.39305270627241,0 9.136136023995768,41.39299404889526,0 9.136555912047175,41.39295094937599,0 9.136839557724281,41.39314371009738,0 9.136745192895489,41.39345026564096,0 9.136439580802058,41.39348649559536,0 9.136273615681931,41.39365450310039,0 9.136196757443997,41.39384661678739,0 9.13598809541638,41.39401451207234,0 9.135696043009283,41.39408920897564,0 9.135468810588883,41.39426089794264,0 9.135344540972966,41.39445318224601,0 9.135171435272751,41.39450912119968,0 9.134834008203864,41.39435708729805,0 9.134613609285509,41.39451497128317,0 9.134554229403978,41.39470424737545,0 9.134367142554126,41.39451639170811,0 9.134139455928413,41.39442650782861,0 9.133864187734574,41.39445822840326,0 9.133750258510599,41.39455792849157,0 9.133467280044819,41.39434904931101,0 9.133214860295155,41.39423832938262,0 9.132963243194601,41.39429183998261,0 9.132748530847099,41.39432438331453,0 9.13223099091323,41.39419566357753,0 9.132559978759037,41.39401072523382,0 9.132816402438566,41.39378996896891,0 9.132701778474765,41.39368168222582,0 9.132473358171215,41.3935400557563,0 9.132238363994656,41.39348185625197,0 9.132039788062599,41.39329736613639,0 9.131787824635795,41.39325804170867,0 9.131481637376888,41.39316572654188,0 9.131235870180653,41.39320727537274,0 9.130953022233271,41.39307784396566,0 9.130575744664524,41.39307550760979,0 9.13045374605451,41.3929087357689,0 9.130106168633425,41.39287336524806,0 9.129764916176253,41.39280815077005,0 9.129489731658641,41.39288538975858,0 9.129261968847828,41.39291781762417,0 9.129088529354501,41.39298180262722,0 9.12881265036285,41.39301890475068,0 9.128485907093168,41.39337065408441,0 9.128241216642788,41.39355676812084,0 9.127949414934351,41.39370106937302,0 9.127661187154228,41.39373355302008,0 9.127380583259068,41.39379325552989,0 9.12714054838737,41.39386659243173,0 9.12690812012805,41.39401179030961,0 9.126722996475763,41.39417825392586,0 9.126666240434576,41.39447093370415,0 9.126757403553389,41.39466009511405,0 9.126926813549421,41.39492759109457,0 9.127109219332619,41.39522823377169,0 9.127493888446899,41.39541227342924,0 9.12796196921089,41.39547702309643,0 9.128386626783197,41.39546759588721,0 9.128531949766362,41.39564189758373,0 9.128244821691286,41.39560646199011,0 9.12809532428987,41.39577346710409,0 9.128097455699278,41.39600636463471,0 9.128326731871926,41.39625687232287,0 9.128591915568247,41.39638737151495,0 9.128892469491557,41.39644878481077,0 9.129222260579954,41.39659593786747,0 9.1295640023719,41.3966655899024,0 9.129798998348736,41.39674611590659,0 9.130082105995182,41.39684428677806,0 9.130376591824785,41.39702748432632,0 9.130672113027615,41.39722044004891,0 9.13088201520881,41.39723193843304,0 9.130894644344266,41.39738474497518,0 9.131308806361229,41.3975223606073,0 9.131640038609738,41.39761585147847,0 9.132049088334831,41.39783948256632,0 9.132535628091393,41.39803345778449,0 9.132350833154401,41.39821419621092,0 9.132579790021026,41.39834954197602,0 9.1328435434556,41.39843279864982,0 9.133215970583297,41.39853452413406,0 9.13346120507601,41.39844300610574,0 9.133629693155898,41.39860073262891,0 9.133656687752975,41.3988107095763,0 9.133561233531848,41.3990512576916,0 9.133443159991742,41.39927977246627,0 9.133211190219033,41.39945174011135,0 9.133002815473294,41.39967853737352,0 9.132841902405463,41.39972659665631,0 9.132625304655688,41.39969675437786,0 9.132455657396727,41.39947213432431,0 9.132209103932244,41.39938337910645,0 9.132036213896114,41.39945269167218,0 9.13184364566963,41.39944818906905,0 9.131719331810825,41.39956190255508,0 9.131473540317586,41.39960345188405,0 9.131190822056503,41.39941954940725,0 9.131183381650052,41.39924857472784,0 9.131033230961489,41.39924152290243,0 9.130842232843728,41.39934138433479,0 9.130679423725582,41.39912527954677,0 9.130373448650744,41.39902401879426,0 9.130253766538443,41.39909191855939,0 9.130019773026316,41.39908811522667,0 9.130009030804406,41.39922179051882,0 9.129799425200371,41.39929151890469,0 9.129504836686069,41.39910743264613,0 9.129473604820255,41.39892449456752,0 9.129477712769397,41.39876175475622,0 9.129213982656768,41.3987570571165,0 9.129176383208812,41.39859235777409,0 9.128943409608642,41.39864295304195,0 9.128768634857011,41.39857130833938,0 9.128409715103052,41.39854107593608,0 9.128337674041216,41.39862218383148,0 9.128057350151956,41.39876311640022,0 9.128141861707707,41.39886696617103,0 9.127993542745356,41.39901157949319,0 9.127746980951855,41.39896745645329,0 9.127634469796902,41.39913670399915,0 9.127515793205827,41.39928132263901,0 9.127623818568802,41.39939447497132,0 9.12739694631254,41.39950273366097,0 9.127246469542495,41.39935820249314,0 9.127130118825914,41.39907680714088,0 9.126908804509481,41.39906955780687,0 9.127158625142741,41.39884207054364,0 9.127002858014986,41.39886034951022,0 9.126835146362819,41.39893380711166,0 9.126678832182659,41.39877891196095,0 9.12648000820106,41.39862567550459,0 9.126385057185811,41.39871440689794,0 9.126260879700435,41.39894149341229,0 9.126188835479088,41.39902259993971,0 9.126091017541139,41.39872580639353,0 9.125826784523593,41.39868273998525,0 9.125777923489293,41.39853478665986,0 9.125747905640607,41.39840802278074,0 9.125633402265745,41.39848007069334,0 9.12537080935429,41.39846368934235,0 9.12521510951359,41.3985498158322,0 9.125016365473684,41.39844210586239,0 9.125207233625247,41.39832976302199,0 9.125212206428216,41.39815268707581,0 9.124857797565959,41.39816502809162,0 9.125049461660435,41.39794817830153,0 9.124933980110711,41.39787654092634,0 9.124474707608483,41.39824247896185,0 9.1241868236405,41.39807672690709,0 9.124095728936759,41.39795541337479,0 9.123927969711287,41.39791637483023,0 9.12371857264664,41.39804411224744,0 9.123640429851685,41.39794434162855,0 9.123884211523933,41.39774936570379,0 9.12373959569682,41.39759287236674,0 9.123590819536549,41.39768840213883,0 9.123475941761896,41.39753280264806,0 9.123564113093012,41.3973239506996,0 9.123329342999567,41.39727911112602,0 9.123255606935032,41.39701926224122,0 9.123039721875962,41.39700721599998,0 9.122792143288612,41.3967292267195,0 9.122710780199625,41.39699123831592,0 9.122505860419082,41.3968026489998,0 9.122325594115118,41.39681346337699,0 9.121856475801282,41.39663804363965,0 9.121766233175229,41.39662560067236,0 9.121500675496463,41.39631208218319,0 9.121212870491956,41.39621417258252,0 9.120859138914925,41.3962103904655,0 9.120993015319128,41.39653448682996,0 9.120704031885944,41.39643664660336,0 9.120499588911875,41.396252489596,0 9.120447350269503,41.39639757961177,0 9.120097980039837,41.3961435463463,0 9.119713356043185,41.39609429435366,0 9.119817188621159,41.39635858942589,0 9.119643512311946,41.39638686061139,0 9.11944049386593,41.39647403091277,0 9.119211402894498,41.39639313021072,0 9.119091314821173,41.39622176891828,0 9.118868615330484,41.39617887519707,0 9.118605324359939,41.39616698476359,0 9.118246342829636,41.39629296669536,0 9.117965695977679,41.396397287734,0 9.118032491967579,41.39654684639326,0 9.118014655965542,41.39668094431671,0 9.11788880933103,41.39662331393944,0 9.117750928924536,41.39659765318483,0 9.11755475395351,41.39674958471075,0 9.117278529769104,41.39677239312343,0 9.117056550716804,41.39670266835095,0 9.117010024715473,41.39690187517907,0 9.116792647534417,41.39677473428846,0 9.116571582756015,41.39675852229095,0 9.116224277920484,41.39680433757592,0 9.116223453788521,41.39667314420047,0 9.115952590490689,41.39654474355572,0 9.115724053944444,41.39649147986341,0 9.115700521906565,41.39660538392952,0 9.11540886229934,41.3966728604092,0 9.115240193052689,41.39675974988026,0 9.114904973063043,41.3966843079269,0 9.114883523066064,41.39627936620654,0 9.11471592076019,41.3962304843668,0 9.114568170412113,41.39649289501514,0 9.114446688321806,41.39630822098358,0 9.114056915461779,41.39636728806549,0 9.113901161941618,41.39628466127596,0 9.113672225726873,41.39619391971274,0 9.113359986061269,41.39615638007986,0 9.112947103841735,41.39616504515,0 9.112695502525714,41.39623011478983,0 9.112390840750866,41.39636532266349,0 9.112174290891502,41.39629079949741,0 9.112184105985278,41.3961143290789,0 9.111992232337789,41.39607136126055,0 9.111674290621474,41.39603594423796,0 9.111524365815704,41.39590743230026,0 9.11125579900931,41.39604761757497,0 9.111106445673691,41.39613780778407,0 9.111155350938009,41.39630897547941,0 9.111120828523841,41.39657709855364,0 9.110916677631371,41.39649647362147,0 9.110889640775536,41.39617311239563,0 9.110691675321348,41.3961510417269,0 9.11044632872207,41.39608448961356,0 9.110486378921667,41.39594727791803,0 9.110325126135862,41.39592479368432,0 9.109982143619316,41.39569713340557,0 9.109819288075345,41.3956033202805,0 9.109489261671818,41.39553201609142,0 9.109231970219994,41.39557688424462,0 9.109134527181437,41.39533898371455,0 9.10924639965852,41.39512961929466,0 9.108899034076142,41.39512988310412,0 9.109107681035651,41.39488258377126,0 9.108968831662491,41.39483643635769,0 9.108718685975926,41.39498265502043,0 9.108453794697017,41.39497797964651,0 9.108417655564409,41.39482658143721,0 9.108171606474947,41.39476453092097,0 9.107876001077027,41.39460366726318,0 9.108036537679919,41.39428246925446,0 9.108070208338779,41.39410725015044,0 9.107825570517738,41.39419331950288,0 9.107617926862627,41.39441645062726,0 9.10752821552423,41.39453252814909,0 9.107162196104657,41.39445712265712,0 9.106989760529958,41.39453083295906,0 9.106726096788357,41.39459393297744,0 9.106481775283291,41.39469426506939,0 9.106409968685703,41.39487890829462,0 9.106236267057302,41.39487323395894,0 9.106091536744888,41.3947488687837,0 9.106114367363162,41.39458322734541,0 9.105934027172902,41.39443599484614,0 9.105773356364285,41.39453131910335,0 9.105586453699699,41.39453536184305,0 9.105311762636084,41.39466250710218,0 9.105402107138003,41.3947883421384,0 9.105530387578513,41.39498154523689,0 9.105638374327336,41.39515096432201,0 9.105885343007083,41.39524421321413,0 9.106120093499449,41.39528908888315,0 9.10611481852583,41.39555367317459,0 9.10586825428005,41.39541933172558,0 9.105574874190069,41.39538064249645,0 9.105525290241641,41.3951916579926,0 9.10532652074242,41.39498213865828,0 9.105207388343434,41.39511158100844,0 9.105015825976505,41.39510518795791,0 9.105038307822969,41.39496992292489,0 9.104948532163103,41.39490565666926,0 9.104778758719402,41.39474618376845,0 9.104783881117505,41.39456999602805,0 9.104604312081586,41.39459859666108,0 9.104317108260499,41.39456221328932,0 9.104393077842886,41.39442821212796,0 9.104225311356702,41.39429897360047,0 9.103942480213156,41.3942141166889,0 9.103750127651878,41.39413277397973,0 9.103784949517388,41.3939458816207,0 9.103544226655504,41.39376565367225,0 9.103242537539856,41.39356943102568,0 9.103055787800983,41.39337258136643,0 9.103054253553452,41.39315572357403,0 9.102430279883201,41.39302877513303,0 9.102131744967972,41.39315466056787,0 9.102174490787656,41.39333512689111,0 9.101934084718643,41.3933039738701,0 9.101700089069666,41.3932099412612,0 9.101508561030919,41.39334995902679,0 9.101864783882775,41.39364738124129,0 9.10201025624561,41.39383509526793,0 9.101765160652828,41.39389439462128,0 9.10173448197547,41.39377213094877,0 9.101582693792807,41.39364818284255,0 9.101493173322371,41.39368746317086,0 9.101560638530991,41.39383252499557,0 9.101211083051947,41.3936882638471,0 9.101307405857719,41.39356733256952,0 9.101185458069011,41.39331035847915,0 9.100969239243607,41.39338489228363,0 9.100729543976733,41.39334923025023,0 9.100530605863071,41.39308168227485,0 9.100326704395719,41.39301441677517,0 9.100367406092014,41.39279324825854,0 9.100222413744564,41.39272245990396,0 9.100054849599285,41.39265123551294,0 9.09997414625308,41.39244804037962,0 9.099811780785171,41.39235864963142,0 9.099656014948021,41.39220815406681,0 9.099170614823526,41.39223717876229,0 9.099336090911478,41.39197373096288,0 9.099604159909758,41.39176128687528,0 9.099491037925258,41.39173412507907,0 9.09932747344358,41.39149838737283,0 9.099151848192278,41.39126069228774,0 9.098990182241092,41.39130160657789,0 9.098685046540984,41.39143234288407,0 9.098854186796665,41.39112492985996,0 9.099006324095944,41.3823227164008,0 
						</coordinates>
					</LinearRing>
				</outerBoundaryIs>
				<innerBoundaryIs>
					<LinearRing>
						<coordinates>
							9.131925636722219,41.39145876302719,0 9.132498059865624,41.39172525087945,0 9.133289502819078,41.39170894263398,0 9.133155612109158,41.3914187857933,0 9.132834122715693,41.3913050736904,0 9.132518562233667,41.39122493172034,0 9.132166267203278,41.39123449253505,0 9.131925636722219,41.39145876302719,0 
						</coordinates>
					</LinearRing>
					<LinearRing>
						<coordinates>
							9.133437314168757,41.39227593062061,0 9.133234634630085,41.39244435400841,0 9.133416949570909,41.39264321157614,0 9.133718300345484,41.39284652219145,0 9.13382522364274,41.39302758933972,0 9.133689440061241,41.39326788320205,0 9.134246074365011,41.39381030204434,0 9.134950276437944,41.39394386426282,0 9.135346701926021,41.39352272962653,0 9.135085444001088,41.39313844819978,0 9.134855018673109,41.39289962906914,0 9.134445200167498,41.39263498583198,0 9.134133412638024,41.39233320096053,0 9.133840385720093,41.39219724581143,0 9.133437314168757,41.39227593062061,0 
						</coordinates>
					</LinearRing>
				</innerBoundaryIs>
			</Polygon>
		</Placemark>
	</Folder>
</Document>
</kml>
