annee;nombre_capture;idZone
2004;143;1
2005;270;1
2006;273;1
2007;209;1
2008;264;1
2009;1478;1
2010;723;1
2011;1900;1
2012;1238;1
2013;507;1
2014;691;1
2015;554;1
2004;85;2
2005;212;2
2006;481;2
2007;290;2
2008;678;2
2009;1756;2
2010;1561;2
2011;1266;2
2012;2421;2
2013;3251;2
2014;3297;2
2015;1576;2
2004;303;3
2005;237;3
2006;433;3
2007;893;3
2008;1051;3
2009;1006;3
2010;887;3
2011;1330;3
2012;1617;3
2013;2188;3
2014;1655;3
2015;1079;3
2004;53;4
2005;185;4
2006;280;4
2007;684;4
2008;624;4
2009;1359;4
2010;1103;4
2011;1271;4
2012;1459;4
2013;273;4
2014;1218;4
2015;481;4
2004;49;5
2005;70;5
2006;58;5
2007;25;5
2008;63;5
2009;1193;5
2010;1021;5
2011;806;5
2012;841;5
2013;355;5
2014;650;5
2015;300;5
2004;220;6
2005;163;6
2006;214;6
2007;341;6
2008;697;6
2009;487;6
2010;748;6
2011;737;6
2012;819;6
2013;126;6
2014;670;6
2015;560;6